^D:\DEV\MAYA_NODES\STATICHRC\X64\DEBUG\NODES_DAG_AIM.OBJ|D:\DEV\MAYA_NODES\STATICHRC\X64\DEBUG\NODES_DAG_STATIC.OBJ|D:\DEV\MAYA_NODES\STATICHRC\X64\DEBUG\NODES_MANIP.OBJ|D:\DEV\MAYA_NODES\STATICHRC\X64\DEBUG\NODE_DG_COS.OBJ|D:\DEV\MAYA_NODES\STATICHRC\X64\DEBUG\NODE_DG_SIN.OBJ|D:\DEV\MAYA_NODES\STATICHRC\X64\DEBUG\PLUGIN.OBJ
C:\PROGRAM FILES\AUTODESK\MAYA2019\LIB\FOUNDATION.LIB
C:\PROGRAM FILES\AUTODESK\MAYA2019\LIB\OPENMAYA.LIB
C:\PROGRAM FILES\AUTODESK\MAYA2019\LIB\OPENMAYAUI.LIB
C:\PROGRAM FILES\AUTODESK\MAYA2019\LIB\OPENMAYAANIM.LIB
C:\PROGRAM FILES\AUTODESK\MAYA2019\LIB\OPENMAYARENDER.LIB
C:\PROGRAM FILES\AUTODESK\MAYA2019\LIB\IMAGE.LIB
C:\PROGRAM FILES (X86)\WINDOWS KITS\10\LIB\10.0.18362.0\UM\X64\OPENGL32.LIB
C:\PROGRAM FILES (X86)\WINDOWS KITS\10\LIB\10.0.18362.0\UM\X64\GLU32.LIB
D:\DEV\MAYA_NODES\STATICHRC\X64\DEBUG\NODES_DAG_AIM.OBJ
D:\DEV\MAYA_NODES\STATICHRC\X64\DEBUG\NODES_DAG_STATIC.OBJ
D:\DEV\MAYA_NODES\STATICHRC\X64\DEBUG\NODES_MANIP.OBJ
D:\DEV\MAYA_NODES\STATICHRC\X64\DEBUG\NODE_DG_COS.OBJ
D:\DEV\MAYA_NODES\STATICHRC\X64\DEBUG\NODE_DG_SIN.OBJ
D:\DEV\MAYA_NODES\STATICHRC\X64\DEBUG\PLUGIN.OBJ
C:\WINDOWS\SYSTEM32\TZRES.DLL
C:\WINDOWS\GLOBALIZATION\SORTING\SORTDEFAULT.NLS
C:\PROGRAM FILES (X86)\MICROSOFT VISUAL STUDIO\2017\COMMUNITY\VC\TOOLS\MSVC\14.16.27023\LIB\X64\MSVCPRTD.LIB
C:\PROGRAM FILES (X86)\MICROSOFT VISUAL STUDIO\2017\COMMUNITY\VC\TOOLS\MSVC\14.16.27023\LIB\X64\MSVCRTD.LIB
C:\PROGRAM FILES (X86)\MICROSOFT VISUAL STUDIO\2017\COMMUNITY\VC\TOOLS\MSVC\14.16.27023\LIB\X64\OLDNAMES.LIB
C:\PROGRAM FILES (X86)\WINDOWS KITS\10\LIB\10.0.18362.0\UM\X64\KERNEL32.LIB
C:\PROGRAM FILES (X86)\MICROSOFT VISUAL STUDIO\2017\COMMUNITY\VC\TOOLS\MSVC\14.16.27023\LIB\X64\VCRUNTIMED.LIB
C:\PROGRAM FILES (X86)\WINDOWS KITS\10\LIB\10.0.18362.0\UCRT\X64\UCRTD.LIB
C:\PROGRAM FILES (X86)\MICROSOFT VISUAL STUDIO\2017\COMMUNITY\VC\TOOLS\MSVC\14.16.27023\BIN\HOSTX86\X86\MSPDBSRV.EXE
